{
	"rules": {
		"messages": {
		".read": "auth !== null",
		".write": "auth !== null"
		},
		"fcmTokens": {
			"$token": {
				".read": "data.val() === auth.uid",
				".write": "!data.exists() || data.val() === auth.uid",
				".validate": "newData.val() === auth.uid"
			}
		}
	}
}
